Fauvette
…
test non paramétrique

kruskal.test(indice_energy ~ heure_cat, data = donne_estim)

    Kruskal-Wallis rank sum test

data:  indice_energy by heure_cat
Kruskal-Wallis chi-squared = 10.015, df = 8, p-value = 0.264

Pas de différence d’après le test de Kruskal-Wallis

#dunn test pour comparer deux à deux les résultats
dunn_test(data=donne_estim , indice_energy ~ heure_cat)

# A tibble: 36 × 9
   .y.           group1  group2    n1    n2 statistic       p p.adj p.adj.signif
 * <chr>         <chr>   <chr>  <int> <int>     <dbl>   <dbl> <dbl> <chr>       
 1 indice_energy 10h-11h 8h-9h     17    12    -2.36  0.0183  0.641 ns          
 2 indice_energy 10h-11h 9h-10h    17    18    -1.86  0.0623  1     ns          
 3 indice_energy 10h-11h 11h-1…    17     9    -1.14  0.255   1     ns          
 4 indice_energy 10h-11h 12h-1…    17     7    -0.877 0.380   1     ns          
 5 indice_energy 10h-11h 13h-1…    17    18    -2.27  0.0235  0.799 ns          
 6 indice_energy 10h-11h 14h-1…    17    22    -2.13  0.0333  1     ns          
 7 indice_energy 10h-11h 15h-1…    17    24    -2.74  0.00605 0.218 ns          
 8 indice_energy 10h-11h 16h-1…    17    18    -1.65  0.0985  1     ns          
 9 indice_energy 8h-9h   9h-10h    12    18     0.695 0.487   1     ns          
10 indice_energy 8h-9h   11h-1…    12     9     0.952 0.341   1     ns          
# ℹ 26 more rows
…
test non paramétrique 2

kruskal.test(indice_energy_global ~ heure_cat, data = tableau_global)

    Kruskal-Wallis rank sum test

data:  indice_energy_global by heure_cat
Kruskal-Wallis chi-squared = 20.691, df = 9, p-value = 0.0141

La p-value étant basse, le test détecte des différences significatives entre les catégories horaires.

dunn_test(data=tableau_global , indice_energy_global ~ heure_cat)

# A tibble: 45 × 9
   .y.            group1 group2    n1    n2 statistic       p p.adj p.adj.signif
 * <chr>          <chr>  <chr>  <int> <int>     <dbl>   <dbl> <dbl> <chr>       
 1 indice_energy… 9h-10h 7h-8h     59    18    0.163  0.870   1     ns          
 2 indice_energy… 9h-10h 8h-9h     59    54   -1.22   0.221   1     ns          
 3 indice_energy… 9h-10h 10h-1…    59    64   -0.0449 0.964   1     ns          
 4 indice_energy… 9h-10h 11h-1…    59    44   -1.33   0.182   1     ns          
 5 indice_energy… 9h-10h 12h-1…    59    14   -0.571  0.568   1     ns          
 6 indice_energy… 9h-10h 13h-1…    59    64   -1.59   0.113   1     ns          
 7 indice_energy… 9h-10h 14h-1…    59    70   -3.00   0.00271 0.119 ns          
 8 indice_energy… 9h-10h 15h-1…    59    72   -2.91   0.00362 0.152 ns          
 9 indice_energy… 9h-10h 16h-1…    59    59   -2.20   0.0276  1     ns          
10 indice_energy… 7h-8h  8h-9h     18    54   -1.01   0.313   1     ns          
# ℹ 35 more rows
…
En dehors des valeurs inférieures à -1, il semblerait que l’on ait une distribution normale, et les différentes hypothèses sont validées, il y aurait donc une différence significative entre 10h-11h et 14h-16h. Pour consolider / approfondir, on peut poursuivre avec un kruskal test.

test non paramétrique 3

kruskal.test(dist_lat_strophe_survol ~ heure_cat, data = donne_fauvette_meteo)

    Kruskal-Wallis rank sum test

data:  dist_lat_strophe_survol by heure_cat
Kruskal-Wallis chi-squared = 7.0573, df = 8, p-value = 0.5305

dunn_test(data=donne_fauvette_meteo , dist_lat_strophe_survol ~ heure_cat)

# A tibble: 36 × 9
   .y.             group1 group2    n1    n2 statistic      p p.adj p.adj.signif
 * <chr>           <chr>  <chr>  <int> <int>     <dbl>  <dbl> <dbl> <chr>       
 1 dist_lat_strop… 10h-1… 8h-9h     17    12    -1.16  0.247  1     ns          
 2 dist_lat_strop… 10h-1… 9h-10h    17    18    -1.72  0.0853 1     ns          
 3 dist_lat_strop… 10h-1… 11h-1…    17     9    -0.820 0.412  1     ns          
 4 dist_lat_strop… 10h-1… 12h-1…    17     7    -1.31  0.191  1     ns          
 5 dist_lat_strop… 10h-1… 13h-1…    17    18    -1.80  0.0720 1     ns          
 6 dist_lat_strop… 10h-1… 14h-1…    17    22    -1.96  0.0496 1     ns          
 7 dist_lat_strop… 10h-1… 15h-1…    17    24    -2.43  0.0150 0.541 ns          
 8 dist_lat_strop… 10h-1… 16h-1…    17    18    -1.40  0.162  1     ns          
 9 dist_lat_strop… 8h-9h  9h-10h    12    18    -0.392 0.695  1     ns          
10 dist_lat_strop… 8h-9h  11h-1…    12     9     0.223 0.824  1     ns          
# ℹ 26 more rows
…
